shortname QindexAll QindexWorstHand WorstHandID
P2000013 0.014689 0.014918 -1
P2000014 0.016302 0.016384 -1
P2000015 0.015238 0.015823 1
P2000016 0.015561 0.016206 1
P2000019 0.013306 0.013582 1
P2000021 0.013955 0.014523 1
P3000019 0.014462 0.015629 1
P6000001 0.014047 0.014347 1
P6000002 0.013404 0.013530 -1
P6000003 0.013727 0.014050 1
P6000004 0.013397 0.013460 1
P6000005 0.013322 0.013467 1
P6000006 0.013734 0.013896 -1
P6000007 0.013523 0.013804 -1
P6000008 0.015431 0.015535 -1
P800001 0.014477 0.014597 -1
P800002 0.014722 0.015053 -1
P800004 0.013322 0.013467 1
P800005 0.013734 0.013896 -1
P800006 0.013523 0.013804 -1
