shortname QindexAll QindexWorstHand WorstHandID
P2000013 7.891128 7.966578 -1
P2000014 8.507151 8.519807 -1
P2000015 7.804685 8.051848 1
P2000016 8.342103 8.560555 1
P2000019 7.380920 7.393854 -1
P2000021 7.749714 7.951514 1
P3000019 7.602178 8.047828 1
P6000001 5.696631 6.004934 -1
P6000002 5.048487 5.178112 1
P6000003 5.052417 5.157672 1
P6000004 4.644884 4.663370 -1
P6000005 5.101244 5.301734 -1
P6000006 5.921735 6.041093 -1
P6000007 5.572068 5.693463 -1
P6000008 6.985181 7.073397 1
P800001 6.282043 6.379611 -1
P800002 6.387829 6.427486 -1
P800004 5.101244 5.301734 -1
P800005 5.921735 6.041093 -1
P800006 5.572068 5.693463 -1
