
Start%%%%%%%%%%%%%%%%%%%%%%%%%%%%%%%%%%%%%%%%
Homoscedasticity for MEANS
Brown-Forsythe says ALL not homoscedastic

p =

   9.0357e-05

Levene says ALL not homoscedastic


%%%%%%%%%%%%Brown-Forsythe says LH not homoscedastic

p =

   1.0960e-04

Levene says LH not homoscedastic


%%%%%%%%%%%%Brown-Forsythe says HH not homoscedastic

p =

   1.3573e-04

Levene says HH not homoscedastic


%%%%%%%%%%%%Brown-Forsythe says HLH homoscedastic

p =

   3.7107e-04

Levene says HLH not homoscedastic


%%%%%%%%%%%%Brown-Forsythe says LD not homoscedastic

p =

   3.2904e-04

Levene says LD not homoscedastic


%%%%%%%%%%%%Brown-Forsythe says HD not homoscedastic

p =

   1.7764e-04

Levene says HD not homoscedastic


%%%%%%%%%%%%Brown-Forsythe says Left vs Right YH homoscedastic

p =

    0.3824

Levene says Left vs Right YH homoscedastic


%%%%%%%%%%%%Brown-Forsythe says Left vs Right OH homoscedastic

p =

    0.6370

Levene says Left vs Right OH homoscedastic


%%%%%%%%%%%%Brown-Forsythe says LH vs HH YH homoscedastic

p =

    0.5526

Levene says LH vs HH YH homoscedastic


%%%%%%%%%%%%Brown-Forsythe says LH vs HH OH homoscedastic

p =

    0.7127

Levene says LH vs HH OH homoscedastic


%%%%%%%%%%%%

OVER AND OUT!!

